<svg width="39" height="38" viewBox="0 0 39 38" fill="none" xmlns="http://www.w3.org/2000/svg">
<g opacity="0.7">
<g filter="url(#filter0_d_1_124)">
<path d="M19.25 0C10.95 0 4.25 6.7 4.25 15C4.25 23.3 10.95 30 19.25 30C27.55 30 34.25 23.3 34.25 15C34.25 6.7 27.55 0 19.25 0ZM26.25 15.5H19.75V22C19.75 22.3 19.55 22.5 19.25 22.5C18.95 22.5 18.75 22.3 18.75 22V15.5H12.25C11.95 15.5 11.75 15.3 11.75 15C11.75 14.7 11.95 14.5 12.25 14.5H18.75V8C18.75 7.7 18.95 7.5 19.25 7.5C19.55 7.5 19.75 7.7 19.75 8V14.5H26.25C26.55 14.5 26.75 14.7 26.75 15C26.75 15.3 26.55 15.5 26.25 15.5Z" fill="white"/>
</g>
</g>
<defs>
<filter id="filter0_d_1_124" x="0.25" y="0" width="38" height="38" filterUnits="userSpaceOnUse" color-interpolation-filters="sRGB">
<feFlood flood-opacity="0" result="BackgroundImageFix"/>
<feColorMatrix in="SourceAlpha" type="matrix" values="0 0 0 0 0 0 0 0 0 0 0 0 0 0 0 0 0 0 127 0" result="hardAlpha"/>
<feOffset dy="4"/>
<feGaussianBlur stdDeviation="2"/>
<feComposite in2="hardAlpha" operator="out"/>
<feColorMatrix type="matrix" values="0 0 0 0 0 0 0 0 0 0 0 0 0 0 0 0 0 0 0.25 0"/>
<feBlend mode="normal" in2="BackgroundImageFix" result="effect1_dropShadow_1_124"/>
<feBlend mode="normal" in="SourceGraphic" in2="effect1_dropShadow_1_124" result="shape"/>
</filter>
</defs>
</svg>
